2018-03-08 15:06:57	medor	http://medor.lavillahermosa.com/ctrl/login/	Successful login for 'medor'
2018-03-09 09:31:39	medor	http://medor.lavillahermosa.com/ctrl/login/	Successful login for 'medor'
2018-03-09 10:00:02	medor	http://medor.lavillahermosa.com/ctrl/login/	Successful login for 'medor'
2018-03-16 11:14:22	medor	http://medor.lavillahermosa.com/ctrl/login/	Successful login for 'medor'
2018-03-16 14:45:25	medor	http://medor.lavillahermosa.com/ctrl/login/	Successful login for 'medor'
2018-03-17 12:54:57	?	?	User 'medor' - Error: Session fingerprint changed (IP address or useragent) (IP: 213.219.154.223)
2018-03-27 14:42:21	medor	http://medor.lavillahermosa.com/ctrl/login/	Successful login for 'medor'
2018-03-27 16:07:56	guest	http://medor.lavillahermosa.com/ctrl/login/	Error: Failed login for 'medor.medor' - Unknown user: medor.medor
2018-03-27 16:08:16	guest	http://medor.lavillahermosa.com/ctrl/login/	Error: Failed login for 'medor.enquetemd' - Unknown user: medor.enquetemd
2018-03-28 09:48:03	medor	http://medor.lavillahermosa.com/ctrl/login/	Successful login for 'medor'
2018-03-28 10:08:10	medor	http://medor.lavillahermosa.com/ctrl/login/	Successful login for 'medor'
2018-03-28 14:33:24	medor	http://medor.lavillahermosa.com/ctrl/login/logout/	Logout for 'medor'
2018-03-28 16:28:22	?	?	User 'medor' - Error: Session fingerprint changed (IP address or useragent) (IP: 62.4.146.20)
2018-03-28 22:12:54	medor	http://medor.lavillahermosa.com/ctrl/login/	Successful login for 'medor'
2018-03-28 22:24:41	?	?	User 'medor' - Error: Session fingerprint changed (IP address or useragent) (IP: 109.128.23.167)
2018-03-30 11:32:08	medor	http://medor.lavillahermosa.com/ctrl/login/	Successful login for 'medor'
2018-04-01 11:40:11	medor	http://medor.lavillahermosa.com/ctrl/login/	Successful login for 'medor'
2018-04-01 15:00:56	?	?	User 'medor' - Error: Session fingerprint changed (IP address or useragent) (IP: 195.244.169.84)
2018-04-02 10:33:01	?	?	User 'medor' - Session timed out (session older than 86400 seconds) (IP: 87.67.24.70)
2018-04-02 13:04:01	medor	http://medor.lavillahermosa.com/ctrl/login/	Successful login for 'medor'
2018-04-02 16:01:34	medor	http://medor.lavillahermosa.com/ctrl/login/	Successful login for 'medor'
2018-04-03 09:50:29	?	?	User 'medor' - Error: Session fingerprint changed (IP address or useragent) (IP: 109.134.179.187)
2018-04-03 11:42:00	medor	http://medor.lavillahermosa.com/ctrl/login/	Successful login for 'medor'
2018-04-03 14:58:56	medor	http://medor.lavillahermosa.com/ctrl/login/	Successful login for 'medor'
2018-04-04 13:01:22	medor	http://medor.lavillahermosa.com/ctrl/login/?id=1028	Successful login for 'medor'
2018-04-05 14:53:05	medor	http://medor.lavillahermosa.com/ctrl/login/	Successful login for 'medor'
2018-04-05 16:25:52	medor	http://medor.lavillahermosa.com/ctrl/login/	Successful login for 'medor'
2018-04-05 21:44:28	medor	http://medor.lavillahermosa.com/ctrl/login/	Successful login for 'medor'
2018-04-06 10:11:58	?	?	User 'medor' - Error: Session fingerprint changed (IP address or useragent) (IP: 81.247.89.90)
2018-04-06 11:28:01	medor	http://medor.lavillahermosa.com/ctrl/login/?id=1045	Successful login for 'medor'
2018-04-06 11:29:16	medor	http://medor.lavillahermosa.com/ctrl/login/?id=1045	Successful login for 'medor'
2018-04-06 11:31:43	medor	http://medor.lavillahermosa.com/ctrl/login/?id=1035	Successful login for 'medor'
2018-04-06 11:33:26	medor	http://medor.lavillahermosa.com/ctrl/login/	Successful login for 'medor'
2018-04-06 12:39:00	?	?	User 'medor' - Error: Session fingerprint changed (IP address or useragent) (IP: 87.65.66.108)
2018-04-06 14:51:45	medor	http://medor.lavillahermosa.com/ctrl/login/	Successful login for 'medor'
2018-04-09 11:37:42	?	?	User 'medor' - Session timed out (session older than 86400 seconds) (IP: 141.135.57.205)
2018-04-11 09:18:10	guest	http://medor.lavillahermosa.com/ctrl/login/?id=1035	Error: Failed login for 'mdoc' - Unknown user: mdoc
2018-04-11 09:18:49	medor	http://medor.lavillahermosa.com/ctrl/login/?id=1035	Successful login for 'medor'
2018-04-11 09:39:42	medor	http://medor.lavillahermosa.com/ctrl/login/	Successful login for 'medor'
2018-04-11 10:54:08	medor	http://medor.lavillahermosa.com/ctrl/login/?id=1125	Successful login for 'medor'
2018-04-11 15:32:13	?	?	User 'medor' - Error: Session fingerprint changed (IP address or useragent) (IP: 81.245.59.67)
2018-04-11 18:22:08	medor	http://medor.lavillahermosa.com/ctrl/login/	Successful login for 'medor'
2018-04-12 10:18:04	?	?	User 'medor' - Error: Session fingerprint changed (IP address or useragent) (IP: 62.235.186.237)
2018-04-12 10:32:36	medor	http://medor.lavillahermosa.com/ctrl/login/?id=1361	Successful login for 'medor'
2018-04-12 10:45:18	guest	http://medor.lavillahermosa.com/ctrl/login/?id=1305	Error: Failed login for 'medor' - Invalid password
2018-04-13 09:37:16	?	?	User 'medor' - Error: Session fingerprint changed (IP address or useragent) (IP: 81.245.40.78)
2018-04-13 11:41:47	medor	http://medor.lavillahermosa.com/ctrl/login/?id=1045	Successful login for 'medor'
2018-04-13 13:40:07	medor	http://medor.lavillahermosa.com/ctrl/login/?id=1138	Successful login for 'medor'
2018-04-13 13:42:01	medor	http://medor.lavillahermosa.com/ctrl/login/logout/	Logout for 'medor'
2018-04-13 13:42:51	medor	http://medor.lavillahermosa.com/ctrl/login/?id=1417	Successful login for 'medor'
2018-04-13 13:42:52	medor	http://medor.lavillahermosa.com/ctrl/login/?id=1361	Successful login for 'medor'
2018-04-13 15:43:41	medor	http://medor.lavillahermosa.com/ctrl/login/	Successful login for 'medor'
2018-04-13 16:43:12	medor	http://medor.lavillahermosa.com/ctrl/login/logout/	Logout for 'medor'
2018-04-14 10:45:33	?	?	User 'medor' - Error: Session fingerprint changed (IP address or useragent) (IP: 83.134.185.91)
2018-04-14 10:45:33	?	?	User 'medor' - Error: Session fingerprint changed (IP address or useragent) (IP: 83.134.185.91)
2018-04-14 10:46:52	medor	http://medor.lavillahermosa.com/ctrl/login/?id=46	Successful login for 'medor'
2018-04-14 12:15:06	?	?	User 'medor' - Error: Session fingerprint changed (IP address or useragent) (IP: 83.134.185.91)
2018-04-14 12:54:27	medor	http://medor.lavillahermosa.com/ctrl/login/?id=1046	Successful login for 'medor'
2018-04-14 15:05:58	medor	http://medor.lavillahermosa.com/ctrl/login/	Successful login for 'medor'
2018-04-14 15:09:13	medor	http://medor.lavillahermosa.com/ctrl/login/	Successful login for 'medor'
2018-04-16 16:14:43	medor	http://medor.lavillahermosa.com/ctrl/login/	Successful login for 'medor'
2018-04-17 11:11:49	medor	http://medor.lavillahermosa.com/ctrl/login/	Successful login for 'medor'
2018-04-17 15:36:36	medor	http://medor.lavillahermosa.com/ctrl/login/	Successful login for 'medor'
2018-04-17 15:44:28	medor	http://medor.lavillahermosa.com/ctrl/login/	Successful login for 'medor'
2018-04-18 10:53:44	medor	http://medor.lavillahermosa.com/ctrl/login/	Successful login for 'medor'
2018-04-18 11:49:21	?	?	User 'medor' - Error: Session fingerprint changed (IP address or useragent) (IP: 141.135.57.205)
2018-04-18 11:59:48	medor	http://medor.lavillahermosa.com/ctrl/login/	Successful login for 'medor'
2018-04-18 12:24:25	medor	http://medor.lavillahermosa.com/ctrl/login/	Successful login for 'medor'
2018-04-19 09:27:44	?	?	User 'medor' - Error: Session fingerprint changed (IP address or useragent) (IP: 91.183.113.145)
2018-04-19 11:48:29	medor	http://medor.lavillahermosa.com/ctrl/login/	Successful login for 'medor'
2018-04-19 13:47:38	medor	http://medor.lavillahermosa.com/ctrl/login/?id=1434	Successful login for 'medor'
2018-04-19 14:09:35	medor	http://medor.lavillahermosa.com/ctrl/login/?id=1423	Successful login for 'medor'
2018-04-19 14:27:10	medor	http://medor.lavillahermosa.com/ctrl/login/?id=1046	Successful login for 'medor'
2018-04-19 14:47:54	?	?	User 'medor' - Error: Session fingerprint changed (IP address or useragent) (IP: 81.247.132.215)
2018-04-19 14:52:09	medor	http://medor.lavillahermosa.com/ctrl/login/?id=1434	Successful login for 'medor'
2018-04-19 14:56:49	medor	http://medor.lavillahermosa.com/ctrl/login/?id=1046	Successful login for 'medor'
2018-04-20 11:50:05	medor	http://medor.lavillahermosa.com/ctrl/login/	Successful login for 'medor'
2018-04-20 17:19:52	?	?	User 'medor' - Error: Session fingerprint changed (IP address or useragent) (IP: 81.245.59.67)
2018-04-20 17:47:31	medor	http://medor.lavillahermosa.com/ctrl/login/?id=1547	Successful login for 'medor'
2018-04-20 17:50:16	?	?	User 'medor' - Error: Session fingerprint changed (IP address or useragent) (IP: 81.245.59.67)
2018-04-21 07:44:16	medor	http://medor.lavillahermosa.com/ctrl/login/	Successful login for 'medor'
2018-04-21 13:57:08	medor	http://medor.lavillahermosa.com/ctrl/login/?id=1586	Successful login for 'medor'
2018-04-21 15:10:34	?	?	User 'medor' - Error: Session fingerprint changed (IP address or useragent) (IP: 62.235.228.175)
2018-04-21 15:58:15	medor	http://medor.lavillahermosa.com/ctrl/login/?id=1565	Successful login for 'medor'
2018-04-21 16:09:40	?	?	User 'medor' - Error: Session fingerprint changed (IP address or useragent) (IP: 62.235.228.175)
2018-04-21 23:11:17	medor	http://medor.lavillahermosa.com/ctrl/login/logout/	Logout for 'medor'
2018-04-21 23:11:29	medor	http://medor.lavillahermosa.com/ctrl/login/	Successful login for 'medor'
2018-04-22 07:19:22	medor	http://medor.lavillahermosa.com/ctrl/login/	Successful login for 'medor'
2018-04-22 07:21:09	medor	http://medor.lavillahermosa.com/ctrl/login/logout/	Logout for 'medor'
2018-04-22 08:34:47	medor	http://medor.lavillahermosa.com/ctrl/login/	Successful login for 'medor'
2018-04-22 14:44:42	medor	http://medor.lavillahermosa.com/ctrl/login/	Successful login for 'medor'
2018-04-22 20:16:08	medor	http://medor.lavillahermosa.com/ctrl/login/	Successful login for 'medor'
2018-04-22 21:06:06	medor	http://medor.lavillahermosa.com/ctrl/login/	Successful login for 'medor'
2018-04-22 21:48:52	medor	http://medor.lavillahermosa.com/ctrl/login/	Successful login for 'medor'
2018-04-23 09:24:39	?	?	User 'medor' - Error: Session fingerprint changed (IP address or useragent) (IP: 91.183.113.145)
2018-04-23 10:21:37	medor	http://medor.lavillahermosa.com/ctrl/login/	Successful login for 'medor'
2018-04-23 11:36:26	medor	http://medor.lavillahermosa.com/ctrl/login/	Successful login for 'medor'
2018-04-23 11:46:29	medor	http://medor.lavillahermosa.com/ctrl/login/	Successful login for 'medor'
2018-04-23 13:26:40	medor	http://medor.lavillahermosa.com/ctrl/login/	Successful login for 'medor'
2018-04-23 15:15:22	?	?	User 'medor' - Error: Session fingerprint changed (IP address or useragent) (IP: 141.135.57.205)
2018-04-23 16:45:36	medor	http://medor.lavillahermosa.com/ctrl/login/	Successful login for 'medor'
2018-04-23 16:55:15	guest	http://medor.lavillahermosa.com/ctrl/login/	Error: Failed login for 'medor' - Invalid password
2018-04-23 16:55:52	guest	http://medor.lavillahermosa.com/ctrl/login/	Error: Failed login for 'medor' - Invalid password
2018-04-23 16:56:20	guest	http://medor.lavillahermosa.com/ctrl/login/	Error: Failed login for 'medor' - Invalid password
2018-04-23 16:56:42	guest	http://medor.lavillahermosa.com/ctrl/login/	Error: Failed login for 'medor' - Invalid password
2018-04-23 16:57:07	medor	http://medor.lavillahermosa.com/ctrl/login/logout/	Logout for 'medor'
2018-04-23 16:57:13	guest	http://medor.lavillahermosa.com/ctrl/login/	Error: Failed login for 'medor' - Invalid password
2018-04-23 16:57:24	guest	http://medor.lavillahermosa.com/ctrl/login/	Error: Failed login for 'medor' - User is not allowed to login
2018-04-23 16:57:33	guest	http://medor.lavillahermosa.com/ctrl/login/	Error: Failed login for 'medor' - User is not allowed to login
2018-04-23 16:57:44	guest	http://medor.lavillahermosa.com/ctrl/login/	Error: Failed login for 'medor' - User is not allowed to login
2018-04-23 16:57:51	guest	http://medor.lavillahermosa.com/ctrl/login/	Error: Failed login for 'medor' - User is not allowed to login
2018-04-23 16:58:29	guest	http://medor.lavillahermosa.com/ctrl/login/	Error: Failed login for 'medor' - User is not allowed to login
2018-04-23 16:59:01	guest	http://medor.lavillahermosa.com/ctrl/login/	Error: Failed login for 'medor' - User is not allowed to login
2018-04-23 16:59:15	guest	http://medor.lavillahermosa.com/ctrl/login/	Error: Failed login for 'medor' - User is not allowed to login
2018-04-23 17:00:19	medor	http://medor.lavillahermosa.com/ctrl/login/	Successful login for 'medor'
2018-04-23 17:00:20	medor	http://medor.lavillahermosa.com/ctrl/login/	Successful login for 'medor'
2018-04-24 09:50:52	medor	http://alcool.medor.coop/ctrl/login/	Successful login for 'medor'
2018-04-24 11:33:54	medor	http://alcool.medor.coop/ctrl/login/	Successful login for 'medor'
2018-04-24 12:37:09	medor	http://alcool.medor.coop/ctrl/login/	Successful login for 'medor'
2018-04-24 17:48:35	medor	http://alcool.medor.coop/ctrl/login/	Successful login for 'medor'
2018-04-24 21:31:53	medor	http://alcool.medor.coop/ctrl/login/	Successful login for 'medor'
2018-04-24 22:09:34	medor	http://alcool.medor.coop/ctrl/login/	Successful login for 'medor'
2018-04-24 22:17:18	medor	http://alcool.medor.coop/ctrl/login/	Successful login for 'medor'
2018-04-24 22:45:11	?	?	User 'medor' - Error: Session fingerprint changed (IP address or useragent) (IP: 127.0.0.1)
2018-04-24 23:23:51	?	?	User 'medor' - Error: Session fingerprint changed (IP address or useragent) (IP: 127.0.0.1)
2018-04-25 10:53:50	medor	https://alcool.medor.coop/ctrl/login/	Successful login for 'medor'
2018-04-25 11:08:26	medor	https://alcool.medor.coop/ctrl/login/	Successful login for 'medor'
2018-04-25 11:34:19	?	?	User 'medor' - Error: Session fingerprint changed (IP address or useragent) (IP: 127.0.0.1)
2018-04-25 11:37:28	medor	https://alcool.medor.coop/ctrl/login/	Successful login for 'medor'
2018-04-25 11:38:21	?	?	User 'medor' - Error: Session fingerprint changed (IP address or useragent) (IP: 127.0.0.1)
2018-04-25 11:47:51	medor	https://alcool.medor.coop/ctrl/login/	Successful login for 'medor'
2018-04-25 11:48:18	?	?	User 'medor' - Error: Session fingerprint changed (IP address or useragent) (IP: 127.0.0.1)
2018-04-25 11:49:41	medor	https://alcool.medor.coop/ctrl/login/	Successful login for 'medor'
2018-04-25 12:29:38	medor	https://alcool.medor.coop/ctrl/login/	Successful login for 'medor'
2018-04-26 09:45:54	medor	https://alcool.medor.coop/ctrl/login/	Successful login for 'medor'
2018-04-26 09:53:15	medor	https://alcool.medor.coop/ctrl/login/	Successful login for 'medor'
2018-04-28 21:21:58	medor	https://alcool.medor.coop/ctrl/login/	Successful login for 'medor'
2018-05-02 10:58:26	medor	https://alcool.medor.coop/ctrl/login/	Successful login for 'medor'
2018-05-08 15:21:02	medor	https://alcool.medor.coop/ctrl/login/	Successful login for 'medor'
2018-05-08 20:27:51	medor	https://alcool.medor.coop/ctrl/login/	Successful login for 'medor'
2018-05-09 10:24:54	medor	https://alcool.medor.coop/ctrl/login/	Successful login for 'medor'
2018-05-09 11:16:19	medor	https://alcool.medor.coop/ctrl/login/	Successful login for 'medor'
2018-05-09 12:18:20	medor	https://alcool.medor.coop/ctrl/login/	Successful login for 'medor'
2018-05-10 11:48:34	medor	https://alcool.medor.coop/ctrl/login/	Successful login for 'medor'
2018-05-10 13:27:32	medor	https://alcool.medor.coop/ctrl/login/	Successful login for 'medor'
2018-05-10 17:18:53	medor	https://alcool.medor.coop/ctrl/login/	Successful login for 'medor'
2018-05-10 17:49:00	medor	https://alcool.medor.coop/ctrl/login/	Successful login for 'medor'
2018-05-10 22:45:39	medor	https://alcool.medor.coop/ctrl/login/	Successful login for 'medor'
2018-05-11 10:37:24	medor	https://alcool.medor.coop/ctrl/login/	Successful login for 'medor'
2018-05-14 12:55:20	guest	https://alcool.medor.coop/ctrl/login/	Error: Failed login for 'celine' - Unknown user: celine
2018-05-14 12:56:01	guest	https://alcool.medor.coop/ctrl/login/	Error: Failed login for 'celine' - Unknown user: celine
2018-05-14 12:57:18	guest	https://alcool.medor.coop/ctrl/login/	Error: Failed login for 'celinegauthier' - Unknown user: celinegauthier
2018-05-14 12:57:34	guest	https://alcool.medor.coop/ctrl/login/	Error: Failed login for 'celine.gauthier' - Unknown user: celine.gauthier
2018-05-14 13:59:43	guest	https://alcool.medor.coop/ctrl/login/	Error: Failed login for 'admin' - Unknown user: admin
2018-05-14 13:59:49	medor	https://alcool.medor.coop/ctrl/login/	Successful login for 'medor'
2018-05-14 14:10:04	medor	https://alcool.medor.coop/ctrl/login/	Successful login for 'medor'
2018-05-14 14:45:17	medor	https://alcool.medor.coop/ctrl/login/	Successful login for 'medor'
2018-05-14 14:47:35	medor	https://alcool.medor.coop/ctrl/login/	Successful login for 'medor'
2018-05-15 12:11:14	medor	https://alcool.medor.coop/ctrl/login/	Successful login for 'medor'
2018-05-15 16:08:57	medor	https://alcool.medor.coop/ctrl/login/	Successful login for 'medor'
2018-05-15 21:09:37	medor	https://alcool.medor.coop/ctrl/login/	Successful login for 'medor'
2018-05-16 13:18:58	medor	https://alcool.medor.coop/ctrl/login/	Successful login for 'medor'
2018-05-16 22:15:00	medor	https://alcool.medor.coop/ctrl/login/	Successful login for 'medor'
2018-05-17 16:53:30	medor	https://alcool.medor.coop/ctrl/login/	Successful login for 'medor'
2018-05-22 11:11:55	medor	https://alcool.medor.coop/ctrl/login/	Successful login for 'medor'
2018-05-22 11:26:37	medor	https://alcool.medor.coop/ctrl/login/	Successful login for 'medor'
2018-05-22 15:24:21	medor	https://alcool.medor.coop/ctrl/login/	Successful login for 'medor'
2018-05-23 10:05:06	medor	https://alcool.medor.coop/ctrl/login/	Successful login for 'medor'
2018-05-23 12:07:16	guest	https://alcool.medor.coop/ctrl/login/	Error: Failed login for 'medor' - Invalid password
2018-05-23 12:09:47	guest	https://alcool.medor.coop/ctrl/login/	Error: Failed login for 'admin' - Unknown user: admin
2018-05-23 13:15:03	medor	https://alcool.medor.coop/ctrl/login/	Successful login for 'medor'
2018-05-23 13:40:40	medor	https://alcool.medor.coop/ctrl/login/	Successful login for 'medor'
2018-05-28 08:46:50	medor	https://alcool.medor.coop/ctrl/login/	Successful login for 'medor'
2018-05-28 09:35:40	medor	https://alcool.medor.coop/ctrl/login/?id=13035	Successful login for 'medor'
2018-05-28 11:06:06	medor	https://alcool.medor.coop/ctrl/login/	Successful login for 'medor'
2018-05-28 16:43:28	medor	https://alcool.medor.coop/ctrl/login/	Successful login for 'medor'
2018-05-28 17:49:56	medor	https://alcool.medor.coop/ctrl/login/	Successful login for 'medor'
2018-05-29 08:56:25	medor	https://alcool.medor.coop/ctrl/login/	Successful login for 'medor'
2018-06-04 14:07:36	medor	https://alcool.medor.coop/ctrl/login/?id=13035	Successful login for 'medor'
2018-06-04 14:17:19	?	?	User 'medor' - Error: Session fingerprint changed (IP address or useragent) (IP: 127.0.0.1)
2018-06-04 14:19:08	medor	https://alcool.medor.coop/ctrl/login/?id=13381	Successful login for 'medor'
2018-06-06 19:34:31	medor	https://alcool.medor.coop/ctrl/login/	Successful login for 'medor'
2018-06-07 10:52:30	medor	https://alcool.medor.coop/ctrl/login/	Successful login for 'medor'
2018-06-11 10:35:55	medor	https://alcool.medor.coop/ctrl/login/	Successful login for 'medor'
2018-06-12 15:19:42	medor	https://alcool.medor.coop/ctrl/login/	Successful login for 'medor'
2018-06-13 13:49:23	medor	https://alcool.medor.coop/ctrl/login/	Successful login for 'medor'
2018-06-13 18:24:41	medor	https://alcool.medor.coop/ctrl/login/	Successful login for 'medor'
2018-06-14 10:32:02	medor	https://alcool.medor.coop/ctrl/login/	Successful login for 'medor'
2018-06-14 12:50:27	medor	https://alcool.medor.coop/ctrl/login/	Successful login for 'medor'
2018-06-14 13:15:19	medor	https://alcool.medor.coop/ctrl/login/	Successful login for 'medor'
2018-06-14 22:58:42	medor	https://alcool.medor.coop/ctrl/login/	Successful login for 'medor'
2018-06-15 09:59:16	medor	https://alcool.medor.coop/ctrl/login/	Successful login for 'medor'
2018-06-15 11:48:51	medor	https://alcool.medor.coop/ctrl/login/	Successful login for 'medor'
2018-06-15 12:21:38	medor	https://alcool.medor.coop/ctrl/login/	Successful login for 'medor'
2018-06-15 13:29:14	medor	https://alcool.medor.coop/ctrl/login/	Successful login for 'medor'
2018-06-15 13:58:15	medor	https://alcool.medor.coop/ctrl/login/	Successful login for 'medor'
2018-06-15 14:02:10	medor	https://alcool.medor.coop/ctrl/login/	Successful login for 'medor'
2018-06-19 11:24:02	medor	https://alcool.medor.coop/ctrl/login/	Successful login for 'medor'
2018-06-20 10:23:46	medor	https://alcool.medor.coop/ctrl/login/	Successful login for 'medor'
2018-06-20 11:13:12	medor	https://alcool.medor.coop/ctrl/login/	Successful login for 'medor'
2018-06-27 15:24:35	medor	https://alcool.medor.coop/ctrl/login/	Successful login for 'medor'
2018-06-27 16:13:45	medor	https://alcool.medor.coop/ctrl/login/	Successful login for 'medor'
2018-06-28 11:14:23	medor	https://alcool.medor.coop/ctrl/login/	Successful login for 'medor'
2018-06-28 11:29:48	medor	https://alcool.medor.coop/ctrl/login/	Successful login for 'medor'
2018-06-28 11:30:51	medor	https://alcool.medor.coop/ctrl/login/	Successful login for 'medor'
2018-06-29 16:47:39	medor	https://alcool.medor.coop/ctrl/login/	Successful login for 'medor'
2018-07-01 09:37:10	medor	https://alcool.medor.coop/ctrl/login/	Successful login for 'medor'
2018-07-01 09:40:06	medor	https://alcool.medor.coop/ctrl/login/logout/	Logout for 'medor'
2018-07-01 09:40:15	medor	https://alcool.medor.coop/ctrl/login/	Successful login for 'medor'
2018-07-01 09:42:44	medor	https://alcool.medor.coop/ctrl/login/logout/	Logout for 'medor'
2018-07-01 09:44:50	medor	https://alcool.medor.coop/ctrl/login/	Successful login for 'medor'
2018-07-01 10:06:54	medor	https://alcool.medor.coop/ctrl/login/logout/	Logout for 'medor'
2018-07-01 10:10:58	medor	https://alcool.medor.coop/ctrl/login/	Successful login for 'medor'
2018-07-01 10:54:23	medor	https://alcool.medor.coop/ctrl/login/logout/	Logout for 'medor'
2018-07-01 11:13:51	medor	https://alcool.medor.coop/ctrl/login/	Successful login for 'medor'
2018-07-01 14:02:06	medor	https://alcool.medor.coop/ctrl/login/logout/	Logout for 'medor'
2018-07-01 14:02:27	medor	https://alcool.medor.coop/ctrl/login/	Successful login for 'medor'
2018-07-04 15:26:18	medor	https://alcool.medor.coop/ctrl/login/	Successful login for 'medor'
2018-07-04 15:51:01	medor	https://alcool.medor.coop/ctrl/login/	Successful login for 'medor'
2018-07-04 16:28:48	medor	https://alcool.medor.coop/ctrl/login/	Successful login for 'medor'
2018-07-04 16:29:14	medor	https://alcool.medor.coop/ctrl/login/	Successful login for 'medor'
2018-07-04 16:41:24	medor	https://alcool.medor.coop/ctrl/login/	Successful login for 'medor'
2018-07-06 12:42:16	medor	https://alcool.medor.coop/ctrl/login/	Successful login for 'medor'
2018-07-06 14:24:59	medor	https://alcool.medor.coop/ctrl/login/	Successful login for 'medor'
2018-07-06 14:34:50	medor	https://alcool.medor.coop/ctrl/login/	Successful login for 'medor'
2018-07-07 08:03:16	medor	https://alcool.medor.coop/ctrl/login/	Successful login for 'medor'
2018-07-18 17:41:16	medor	https://alcool.medor.coop/ctrl/login/	Successful login for 'medor'
2018-08-20 11:37:27	medor	https://alcool.medor.coop/ctrl/login/	Successful login for 'medor'
2018-08-22 11:48:26	medor	http://chemins.lionelmaes.com/ctrl/login/	Successful login for 'medor'
2018-08-22 12:29:55	lionel	http://chemins.lionelmaes.com/ctrl/login/logout/	Logout for 'lionel'
2018-08-22 12:30:01	erg-editor	http://chemins.lionelmaes.com/ctrl/login/	Successful login for 'erg-editor'
2018-08-22 12:30:25	erg-editor	http://chemins.lionelmaes.com/ctrl/login/logout/	Logout for 'erg-editor'
2018-08-22 12:30:36	lionel	http://chemins.lionelmaes.com/ctrl/login/	Successful login for 'lionel'
2018-08-22 12:31:59	lionel	http://chemins.lionelmaes.com/ctrl/login/logout/	Logout for 'lionel'
2018-08-22 12:32:04	erg-editor	http://chemins.lionelmaes.com/ctrl/login/	Successful login for 'erg-editor'
2018-08-22 12:33:00	erg-editor	http://chemins.lionelmaes.com/ctrl/login/logout/	Logout for 'erg-editor'
2018-08-22 12:33:03	lionel	http://chemins.lionelmaes.com/ctrl/login/	Successful login for 'lionel'
2018-08-22 12:33:47	lionel	http://chemins.lionelmaes.com/ctrl/login/logout/	Logout for 'lionel'
2018-08-22 12:46:46	erg-editor	http://chemins.lionelmaes.com/ctrl/login/	Successful login for 'erg-editor'
2018-08-22 12:47:18	erg-editor	http://chemins.lionelmaes.com/ctrl/login/logout/	Logout for 'erg-editor'
2018-08-22 12:47:55	erg-editor	http://chemins.lionelmaes.com/ctrl/login/	Successful login for 'erg-editor'
2018-08-22 12:50:32	erg-editor	http://chemins.lionelmaes.com/ctrl/login/logout/	Logout for 'erg-editor'
2018-08-22 12:50:44	erg-editor	http://chemins.lionelmaes.com/ctrl/login/	Successful login for 'erg-editor'
2018-09-04 10:06:03	lionel	http://chemins.lionelmaes.com/ctrl/login/	Successful login for 'lionel'
2018-09-04 10:27:36	lionel	http://chemins.lionelmaes.com/ctrl/login/	Successful login for 'lionel'
2018-09-04 10:34:40	lionel	http://chemins.lionelmaes.com/ctrl/login/logout/	Logout for 'lionel'
2018-09-04 10:34:51	lionel	http://chemins.lionelmaes.com/ctrl/login/	Successful login for 'lionel'
2018-09-04 11:52:09	lionel	http://chemins.lionelmaes.com/ctrl/login/logout/	Logout for 'lionel'
2018-09-04 11:52:39	lionel	http://chemins.lionelmaes.com/ctrl/login/	Successful login for 'lionel'
2018-09-04 11:59:30	lionel	http://chemins.lionelmaes.com/ctrl/login/logout/	Logout for 'lionel'
2018-09-04 12:02:15	lionel	http://chemins.lionelmaes.com/ctrl/login/	Successful login for 'lionel'
2018-09-04 12:16:41	lionel	http://chemins.lionelmaes.com/ctrl/login/logout/	Logout for 'lionel'
2018-09-04 12:17:14	demo	http://chemins.lionelmaes.com/ctrl/login/	Successful login for 'demo'
2018-09-04 12:37:30	demo	http://chemins.lionelmaes.com/ctrl/login/logout/	Logout for 'demo'
2018-09-04 12:37:47	demo	http://chemins.lionelmaes.com/ctrl/login/	Successful login for 'demo'
2018-09-04 12:38:17	demo	http://chemins.lionelmaes.com/ctrl/login/logout/	Logout for 'demo'
2018-09-04 12:38:34	demo	http://chemins.lionelmaes.com/ctrl/login/	Successful login for 'demo'
2018-09-04 13:49:02	demo	http://chemins.lionelmaes.com/ctrl/login/logout/	Logout for 'demo'
2018-09-04 13:49:24	demo	http://chemins.lionelmaes.com/ctrl/login/	Successful login for 'demo'
2018-09-04 13:58:45	demo	http://chemins.lionelmaes.com/ctrl/login/logout/	Logout for 'demo'
2018-09-04 13:58:58	demo	http://chemins.lionelmaes.com/ctrl/login/	Successful login for 'demo'
2018-09-04 20:53:53	?	?	User 'demo' - Error: Session fingerprint changed (IP address or useragent) (IP: 109.132.226.174)
